# Please, don't change the idx

*[idx] 0 [engl] PRESS ANY KEY TO START [trans] APPUYEZ SUR UNE TOUCHE POUR DÉMARRER
*[idx] 1 [engl] Enter an event [trans] Compétition
*[idx] 2 [engl] Practice [trans] Entraînement
*[idx] 3 [engl] Configuration [trans] Configuration
*[idx] 4 [engl] Credits [trans] Crédits
*[idx] 5 [engl] Quit [trans] Quitter
*[idx] 6 [engl] Select an event [trans] Choisissez une compétition
*[idx] 7 [engl] Select a cup [trans] Choisissez une coupe
*[idx] 8 [engl] Back [trans] Retour
*[idx] 9 [engl] Continue [trans] Continuer
*[idx] 10 [engl] You cannot enter this cup yet
	[trans] Vous ne pouvez pas encore participer à cette coupe

*[idx] 11 [engl] Herring: [trans] Harengs :
*[idx] 12 [engl] Time: [trans] Temps :
*[idx] 13 [engl] Race! [trans] C'est parti !
*[idx] 14 [engl] seconds [trans] secondes
*[idx] 15 [engl] Ok [trans] Valider
*[idx] 16 [engl] Congratulations! You won the cup!
	[trans] Félicitations ! Vous avez remporté cette coupe !
*[idx] 17 [engl] You have reached level [trans] Vous avez atteint le niveau
*[idx] 18 [engl] Sorry, you didn't advance [trans] Désolé, vous n'avez pas avancé.
*[idx] 19 [engl] You don't have any lives left [trans] Il ne vous reste plus aucune vie
*[idx] 20 [engl] Select a race [trans] Choisissez une course

*[idx] 21 [engl] Failed, -1 Tuxlive [trans] Échec, -1 Tuxlive
*[idx] 22 [engl] Success, +/- 0 Tuxlive [trans] Réussite, +/- 0 Tuxlive
*[idx] 23 [engl] Success, +1 Tuxlive [trans] Réussite, +1 Tuxlive
*[idx] 24 [engl] Success, +2 Tuxlive [trans] Réussite, +2 Tuxlive
*[idx] 25 [engl] Race aborted [trans] Course annulée
*[idx] 26 [engl] Score: [trans] Score :
*[idx] 27 [engl] points [trans] points

*[idx] 28 [engl] Cancel [trans] Annuler
*[idx] 29 [engl] Loading [trans] Chargement
*[idx] 30 [engl] Please wait... [trans] Veuillez patienter...

*[idx] 31 [engl] Fullscreen: [trans] Plein écran
*[idx] 32 [engl] Resolution: [trans] Résolution :
*[idx] 33 [engl] Music volume: [trans] Volume de la musique :
*[idx] 34 [engl] Sound volume: [trans] Volume des sons :
*[idx] 35 [engl] Language: [trans] Langue :
*[idx] 36 [engl] Level of detail: [trans] Niveau de détail :
*[idx] 37 [engl] Contributed by: [trans] Créé par :
*[idx] 38 [engl] Event: [trans] Compétition :
*[idx] 39 [engl] Cup: [trans] Coupe :
*[idx] 40 [engl] Race Over [trans] Course terminée

*[idx] 41 [engl] For more configuration options, please edit the
	[trans] Pour plus d'options de configuration, veuillez modifier le
*[idx] 42 [engl] file 'options.lst' and read the documentation.
	[trans] fichier « options.lst » et lire la documentation.
*[idx] 43 [engl] Help [trans] Aide
*[idx] 44 [engl] 1, 2, 3 - change view mode [trans] 1, 2, 3 - Modifier le mode d'affichage
*[idx] 45 [engl] F - hide/show fps display [trans] F - Masquer/montrer l'affichage des images par seconde 
*[idx] 46 [engl] H - hide/show hud display [trans] H - Masquer/montrer l'affichage tête haute
*[idx] 47 [engl] S - screenshot [trans] S - Capture d'écran
*[idx] 48 [engl] U - toggle ui snow [trans] U - Modifier l'affichage de la neige
*[idx] 49 [engl] P - set pause mode [trans] P - Activer le mode pause
*[idx] 50 [engl] T - trick [trans] T - Astuces
*[idx] 51 [engl] ESC - abort Race [trans] - Échap - Annuler la course
*[idx] 52 [engl] SPACE - jump [trans] Espace - Sauter
*[idx] 53 [engl] CRSR Left - turn left [trans] Flèche gauche - Tourner à gauche
*[idx] 54 [engl] CRSR Right - turn right [trans] Flèche droite - Tourner à droite
*[idx] 55 [engl] CRSR Up - accelerate [trans] - Flèche haut - Accélérer
*[idx] 56 [engl] CRSR down - brake [trans] - Flèche bas - Freiner
*[idx] 57 [engl] Keyboard Functions [trans] Fonctions du clavier

*[idx] 58 [engl] Select your player name: [trans] Sélectionnez votre nom :
*[idx] 59 [engl] Select a character: [trans] Sélectionnez un personnage
*[idx] 60 [engl] Enter [trans] Entrée
*[idx] 61 [engl] New player [trans] Nouveau joueur / nouvelle joueuse

*[idx] 62 [engl] Highscore list [trans] Liste des records
*[idx] 63 [engl] No entries for this race [trans] Aucun temps pour cette course
*[idx] 64 [engl] Back [trans] Retour
*[idx] 65 [engl] Press any key to return to the main menu [trans] Appuyez sur n'importe quelle touche pour retourner au menu principal

*[idx] 66 [engl] Enter a name for the new player and select an avatar: [trans] Saisissez un nom pour le nouveau joueur ou la nouvelle joueuse et sélectionnez un avatar :

*[idx] 67 [engl] Loading resources, [trans] Chargement des ressources,
*[idx] 68 [engl] please wait [trans] veuillez patienter

*[idx] 69 [engl] Mirror track: Off [trans] Piste inversée : désactivée
*[idx] 70 [engl] Mirror track: On [trans] Piste inversée : activée

*[idx] 71 [engl] Light: Sunny [trans] Lumière : ensoleillé
*[idx] 72 [engl] Light: Cloudy [trans] Lumière : nuageux
*[idx] 73 [engl] Light: Evening [trans] Lumière : soirée
*[idx] 74 [engl] Light: Night [trans] Lumière : nuit

*[idx] 75 [engl] Snow: No [trans] Neige : non
*[idx] 76 [engl] Snow: A little [trans] Neige : un peu
*[idx] 77 [engl] Snow: Some [trans] Neige :  beaucoup
*[idx] 78 [engl] Snow: A lot [trans] Neige : énormément

*[idx] 79 [engl] Wind: No [trans] Vent : non 
*[idx] 80 [engl] Wind: Breeze [trans] Vent : un peu 
*[idx] 81 [engl] Wind: Strong [trans] Vent : beaucoup
*[idx] 82 [engl] Wind: Blustery [trans] Vent : énormément

*[idx] 83 [engl] Randomize settings [trans] Paramètres aléatoires

*[idx] 84 [engl] Fullscreen setting has changed, [trans] Le paramètre de plein écran a changé,
*[idx] 85 [engl] You need to restart the game [trans] vous devez redémarer le jeu
*[idx] 86 [engl] Orientation [trans] Orientation
*[idx] 87 [engl] North [trans] Nord
*[idx] 88 [engl] West [trans] Ouest
*[idx] 89 [engl] South [trans] Sud
*[idx] 90 [engl] East [trans] Est
*[idx] 91 [engl] Reset [trans] Réinitialiser
*[idx] 92 [engl] Player setup [trans] Configuration du joueur / de la joueuse
*[idx] 93 [engl] Delete player [trans] Supprimer le joueur / la joueuse
*[idx] 94 [engl] Tilt sensitivity [trans] Sensibilité à l'inclinaison