# Please, don't change the idx

*[idx] 0 [engl] PRESS ANY KEY TO START [trans]
*[idx] 1 [engl] Enter an event [trans]
*[idx] 2 [engl] Practice [trans]
*[idx] 3 [engl] Configuration [trans]
*[idx] 4 [engl] Credits [trans]
*[idx] 5 [engl] Quit [trans]
*[idx] 6 [engl] Select an event [trans]
*[idx] 7 [engl] Select a cup [trans]
*[idx] 8 [engl] Back [trans]
*[idx] 9 [engl] Continue [trans]
*[idx] 10 [engl] You cannot enter this cup yet [trans]

*[idx] 11 [engl] Herring: [trans]
*[idx] 12 [engl] Time: [trans]
*[idx] 13 [engl] Race! [trans]
*[idx] 14 [engl] seconds [trans]
*[idx] 15 [engl] Ok [trans]
*[idx] 16 [engl] Congratulations! You won the cup! [trans]
*[idx] 17 [engl] You have reached level [trans]
*[idx] 18 [engl] Sorry, you didn't advance [trans]
*[idx] 19 [engl] You don't have any lives left [trans]
*[idx] 20 [engl] Select a race [trans]

*[idx] 21 [engl] Failed, -1 Tuxlive [trans]
*[idx] 22 [engl] Success, +/- 0 Tuxlive [trans]
*[idx] 23 [engl] Success, +1 Tuxlive [trans]
*[idx] 24 [engl] Success, +2 Tuxlive [trans]
*[idx] 25 [engl] Race aborted [trans]
*[idx] 26 [engl] Score: [trans]
*[idx] 27 [engl] points [trans]

*[idx] 28 [engl] Cancel [trans]
*[idx] 29 [engl] Loading [trans]
*[idx] 30 [engl] Please wait... [trans]

*[idx] 31 [engl] Fullscreen: [trans]
*[idx] 32 [engl] Resolution: [trans]
*[idx] 33 [engl] Music volume: [trans]
*[idx] 34 [engl] Sound volume: [trans]
*[idx] 35 [engl] Language: [trans]
*[idx] 36 [engl] Level of detail: [trans]
*[idx] 37 [engl] Contributed by: [trans]
*[idx] 38 [engl] Event: [trans]
*[idx] 39 [engl] Cup: [trans]
*[idx] 40 [engl] Race Over [trans]

*[idx] 41 [engl] For more configuration options, please edit the [trans]
*[idx] 42 [engl] file 'options.lst' and read the documentation. [trans]
*[idx] 43 [engl] Help [trans]
*[idx] 44 [engl] 1, 2, 3 - change view mode [trans]
*[idx] 45 [engl] F - hide/show fps display [trans]
*[idx] 46 [engl] H - hide/show hud display [trans]
*[idx] 47 [engl] S - screenshot [trans]
*[idx] 48 [engl] U - toggle ui snow [trans]
*[idx] 49 [engl] P - set pause mode [trans]
*[idx] 50 [engl] T - trick [trans]
*[idx] 51 [engl] ESC - abort Race [trans]
*[idx] 52 [engl] SPACE - jump [trans]
*[idx] 53 [engl] CRSR Left - turn left [trans]
*[idx] 54 [engl] CRSR Right - turn right [trans]
*[idx] 55 [engl] CRSR Up - accelerate [trans]
*[idx] 56 [engl] CRSR down - brake [trans]
*[idx] 57 [engl] Keyboard Functions [trans]

*[idx] 58 [engl] Select your player name: [trans]
*[idx] 59 [engl] Select a character: [trans]
*[idx] 60 [engl] Enter [trans]
*[idx] 61 [engl] New player [trans]

*[idx] 62 [engl] Highscore list [trans]
*[idx] 63 [engl] No entries for this race [trans]
*[idx] 64 [engl] Back [trans]
*[idx] 65 [engl] Press any key to return to the main menu [trans]

*[idx] 66 [engl] Enter a name for the new player and select an avatar: [trans]

*[idx] 67 [engl] Loading resources, [trans]
*[idx] 68 [engl] please wait [trans]

*[idx] 69 [engl] Mirror track: Off [trans]
*[idx] 70 [engl] Mirror track: On [trans]

*[idx] 71 [engl] Light: Sunny [trans]
*[idx] 72 [engl] Light: Cloudy [trans]
*[idx] 73 [engl] Light: Evening [trans]
*[idx] 74 [engl] Light: Night [trans]

*[idx] 75 [engl] Snow: No [trans]
*[idx] 76 [engl] Snow: A little [trans]
*[idx] 77 [engl] Snow: Some [trans]
*[idx] 78 [engl] Snow: A lot [trans]

*[idx] 79 [engl] Wind: No [trans]
*[idx] 80 [engl] Wind: Breeze [trans]
*[idx] 81 [engl] Wind: Strong [trans]
*[idx] 82 [engl] Wind: Blustery [trans]

*[idx] 83 [engl] Randomize settings [trans]

*[idx] 84 [engl] Fullscreen setting has changed, [trans]
*[idx] 85 [engl] You need to restart the game [trans]
*[idx] 86 [engl] Orientation [trans]
*[idx] 87 [engl] North [trans]
*[idx] 88 [engl] West [trans]
*[idx] 89 [engl] South [trans]
*[idx] 90 [engl] East [trans]
*[idx] 91 [engl] Reset [trans]
*[idx] 92 [engl] Player setup [trans]
*[idx] 93 [engl] Delete player [trans]
*[idx] 94 [engl] Tilt sensitivity [trans]